60848
110731
-126357
-16571
-73543
73866
102528
39194
-84475
-45584
35723
-6877
-129234
-58609
119977
12110
-58665
-45943
-89449
44152
-97082
47419
62257
-13489
-21
-40146
29964
-74706
56925
-92840
-11053
-103437
92999
-56711
-46419
126389
105145
123072
17301
20351
25463
-33150
66203
-125477
7860
117685
-125422
39527
84406
103574
-99158
67935
1403
-55034
-108905
47609
-20427
-86793
-65922
-33331
-68405
19908
-104844
-31970
109634
-34688
-92968
91672
60700
-53998
72998
-127734
42133
35442
94401
-70806
71145
-20547
-7270
18427
105335
-127447
-114479
8644
67037
18444
117583
-45065
-68348
47297
99916
96463
34573
-81548
-89680
-33937
112980
128744
-6531
-71547
-10445
-46015
-217
9739
21198
87687
96204
-9756
-105505
-15007
-109965
-51362
51268
76922
2837
117686
695
80401
-6195
-105070
29501
30285
-102203
-19644
-88654
108442
-5075
13358
-52699
-2062
-83422
6398
-95425
-2297
-37769
-86321
5762
38261
95869
-3762
-71025
13526
-110406
122826
102202
59584
-5002
12598
72641
-129852
-109723
775
-61761
4933
-45285
7967
15400
-44695
128127
95383
-119483
-13378
-69832
-106624
-45453
79880
92390
-107643
83713
-22560
-38779
-82535
-10519
77887
-31364
4217
104037
-24038
51931
-85964
-68694
28603
42591
16519
-79282
-9402
114550
-91565
-69410
-30220
102960
-13356
-124869
-26521
109091
116716
-42766
19421
22844
-40875
-79217
97368
-14721
-55639
98507
-11344
78007
-12151
-111931
-66154
82211
47753
-28665
-72561
84473
9772
108450
71641
19698
-12618
1316
-100792
107955
-36614
-92293
14835
-117700
-7646
-18992
-98035
-7385
20818
128598
94055
-104962
-110510
19208
66854
-62628
16135
114751
-80332
32537
46603
80228
-45385
-108450
35845
34663
61567
-45163
4628
79173
-35489
-1936
-56556
26217
8799
-74816
-89630
-122097
6152
118086
66181
-37248
-119935
-42624
-99754
99162
21656
-121020
29434
-28231
-13083
-54918
-74632
-42175
129952
-99166
64015
2357
-46429
117842
-113109
104566
34
-123719
-63204
-116897
-116335
119779
-49435
127390
-56516
-73934
92128
1557
35075
-12170
122983
17012
-74776
118588
-107693
114936
-79733
14829
7035
-39934
31407
119503
-96199
93076
108956
-109287
-83804
-98080
-95888
-111147
-28166
103321
48477
-125743
70865
58727
-104709
-16026
30027
106266
-102838
-67776
105003
-111629
-123163
26376
106220
104126
-51724
122642
62648
107780
32047
-79898
-82341
-37890
-127296
-5957
-130278
23445
89611
20473
21639
-17579
8593
15250
33601
5433
14729
122196
-65893
2688
110483
-75988
31542
61025
-70831
19281
-99167
33462
-116766
-107401
23996
-118122
-84385
-67126
-101306
-55590
121151
-77053
-5352
-28512
99509
-110513
-69745
-96846
126947
-38348
118201
51925
90912
15714
-92270
124966
-69862
79482
127751
123715
14560
45494
43817
64380
96000
60047
-90103
115690
113511
5973
45492
63358
42576
101540
-114149
90868
106004
115941
125382
82115
-22531
-120924
-1100
90864
-536
27872
29669
100063
31994
30813
60694
12039
-128712
-96058
-116418
-41313
-130567
-92464
14601
-93387
58222
49235
101975
88120
-52981
105293
-14964
53372
50373
19657
-28195
102802
106354
-49208
-18283
-119505
-109069
-42992
18238
115817
79694
31985
-85819
65801
18403
88057
-103045
-77671
-53934
-56434
47646
81288
-55424
91518
70090
115263
-118148
29074
-65847
-36338
93519
36844
56933
21521
123344
-89228
-117835
-111585
117061
-119774
-56016
-70279
-38373
-32438
115041
37785
109161
8132
42609
-123689
95120
124950
108696
107252
-130408
75903
-126052
101820
82332
20219
74521
-107665
17967
-57546
19949
-99544
-61297
-112533
88
38212
108507
-51400
-106177
-25174
-20656
-65694
48694
-62472
-94145
-116349
-50520
38325
87332
-85847
89527
-14733
20900
-82959
72516
-77367
111453
73727
62396
-66732
-59440
-43909
50923
127139
-48365
-63135
-2628
28948
-126053
-79771
-102688
106382
-12587
36395
82546
88654
-7489
14206
-108405
-68476
-116624
-90515
124583
44525
78726
82777
-49096
-48022
96921
89606
105947
-1178
-23417
12927
30666
-101038
-72010
99831
-127228
-83214
-73643
4008
115063
-78676
106106
-81528
-80580
-124477
128318
50425
-72068
14715
84413
67454
-7028
-48576
-71412
78645
68045
72345
-128993
-69781
105105
-122819
-96093
83195
-18716
-98078
-24895
-64823
-111802
-89811
-101420
130550
-21408
126314
123400
-128444
96673
-102306
-39675
99872
90828
-95282
23378
22251
93294
77619
111855
78063
85845
-6076
-54619
1903
102122
76123
-124324
-32618
-7552
8696
-56212
-112301
-29301
-97015
42441
9521
-48422
-26316
-54476
103966
77483
-69855
-1731
-2030
50111
6544
50525
-70480
59219
-15483
-82971
-68895
6158
98365
126681
1615
-54301
45373
84443
-122142
-114472
122412
-121121
34824
-99125
55991
106464
-26582
-116708
-59820
47515
12236
12106
29177
-31987
-110373
87941
-2089
-113152
-588
-3544
53468
-72570
8271
97058
-76717
-32931
22834
3681
68934
-97984
-28059
-73708
-28156
-54478
-118188
25577
67934
48559
-13663
-16566
-50677
88792
73449
-122269
65479
48516
24438
-23487
-64869
123205
29653
-115252
-29736
112480
-52870
32688
54583
1205
88621
40772
11726
-97136
-115049
-35249
-44816
93292
-8063
-126523
19215
-37701
-36536
-38021
-46965
-112016
67590
-70970
43609
11689
27605
-47104
48327
49459
-12830
28427
93182
16119
20358
130244
86681
99682
-53171
-68775
-98788
-44603
98265
-114286
-113320
-17526
-53287
-83683
-95026
3190
90560
4018
-11020
-126510
-78683
100149
-102800
-64915
5845
121026
12348
-59974
65425
-65877
-62513
-6219
-117613
-34465
-9456
-80429
-86139
109397
-15260
-65332
-100470
59348
102540
-41105
-23922
-77651
-45430
52812
94878
-90391
-24232
-38813
27439
-69012
70580
128173
80450
115839
52677
-68426
-44651
72020
67759
90103
-62556
-127894
-91101
-120738
-116547
-76821
462
-89217
61412
-43261
-54568
-68362
-32829
-68837
-97496
-92781
88930
68605
32437
4984
-8437
66308
3274
10050
-79650
78101
-45792
-50695
-48766
-32851
58110
-34799
86196
81089
-48566
36175
-91698
-80465
21106
75171
15398
-88843
-81044
85732
45962
-82178
94328
-10356
103549
76235
11519
-14759
132
84886
22334
-129300
110159
56404
-94984
-104636
-40472
-39361
122372
-130500
45233
123189
-10001
13032
-4736
-64208
-12969
-119556
6259
-4238
-90002
22006
110315
-18722
-28861
-33934
-116908
-29928
80661
-64970
91355
-1370
88975
10841
110393
-66560
29415
99396
80448
87432
122877
45732
-71308
65667
-21909
-27309
-99446
74470
25713
63786
100830
-50122
32496
-5934
-112677
8496
-38090
-17815
-8653
-105836
-6453
128562
-49597
-83292
118061
-118221
-112341
-123448
-78975
-65888
-121093
2558
-110058
130925
43457
-85671
8198
20138
-26476
105281
-15189
-48176
-16782
-108311
-101635
48142
39221
125022
-32010
65415
33887
25317
-66339
-41112
15318
-28173
35446
108803
-28003
1866
10810
100833
14702
-44034
65634
-130906
-102054
64078
107001
128762
-96714
-84323
13782
8305
60702
-17629
-14461
-50632
123604
96959
-55274
51156
26122
-24923
47355
-38698
-38488
-15640
97464
58196
-58625
38429
51590
-65650
-59413
-67628
63987
86086
94431
-85512
30574
66625
86773
-38593
96957
-74611
-51761
90221
