27516
107105
-50381
92462
-66838
-100078
-12269
-122825
91352
60538
-69683
-115419
106010
-98826
131030
10924
35997
-24363
44616
-29475
62972
-39297
-116965
-67744
-116083
85477
103394
-80578
-75579
62078
4618
19964
111919
-108899
52063
-19391
8887
34109
-99033
100807
108390
-47274
14735
34031
96673
-22416
28586
-97392
45513
-129319
50622
-59557
-54194
-38102
16915
55200
6190
-72884
15923
111755
-119304
-90909
-24432
100293
-95461
-34000
-75612
73356
11721
58464
-124551
-67265
68921
98897
-110934
130125
51798
45754
18376
85677
-2845
-40241
38465
-24151
123148
-126388
104859
-57823
-128644
47610
13888
-117932
63920
20901
-85345
33527
-17151
45418
14023
-121122
-12844
35477
-103803
-95251
33142
13277
110017
-57693
126025
-64236
-39028
66811
14949
130622
59224
8646
96425
95798
21736
40299
-79283
-95078
10861
-53205
67261
6971
46405
-38470
-17379
123661
-124655
-118169
37371
-20372
20792
115091
2223
78546
109814
-47681
-28416
-113631
-48710
96726
-1979
-107741
118779
-105436
-121595
58804
38556
96894
-57361
-47559
-94065
-104419
-39592
12420
104712
-20316
31509
-56757
127527
-37682
-80167
111325
-22029
-41874
41193
-35202
-108076
35301
-90264
12538
-82801
113424
5598
-60449
38546
-70756
116068
50167
-103217
-62265
-18146
57947
-31260
18084
-111832
-76587
-20007
128700
85507
35260
-43982
-88020
-43409
62299
76924
-48869
-122470
-67943
-108207
-24118
5092
35116
4528
-3861
117762
47947
102641
53631
116365
-104279
-20221
-16865
-61946
19704
-86237
-14931
-68793
-116758
104211
124288
51823
-123784
118968
-49914
108596
-84029
19478
-108878
72608
35662
51160
-15731
-73654
59056
-86468
81426
34035
113840
-129948
107916
66219
-40
124972
-70955
-49085
82543
71787
-111215
-33215
22005
911
-126759
-88237
-23049
-75584
-71085
98577
-62881
71532
-104778
47444
118075
-59062
-98365
117717
40943
70324
106411
-17311
-115768
-129637
85490
106844
27150
8884
49571
-1312
-118887
-60074
-27368
53773
-75874
-19063
-10472
105743
39466
-25421
111990
58203
39405
-124771
130329
40570
62828
-67347
-21652
86846
42946
-85221
-12985
57191
-2892
-108351
124749
-67663
-58301
56428
-121926
21081
4529
-122654
98686
31257
-69136
-45389
-48884
83331
-2698
-70542
117324
126677
39325
-117455
18502
-79802
48476
10619
79354
100516
-37516
120527
71904
76953
-123888
-110227
-23375
-38877
-40
-9059
33968
42140
-108941
-82559
1648
-96448
83564
78891
-73238
-1034
7331
-59572
-42214
49337
-89842
-94681
63756
93526
16118
-105179
-61866
-3173
48315
96433
85740
-27655
81631
111266
44948
-114014
-44380
5622
117399
30979
-82948
-109288
67078
-36923
115463
93831
-18596
48411
-82696
-13313
32913
86955
35910
24556
8883
56774
-76650
-49792
-65076
94495
105923
-55542
-92596
-92430
-56671
-94496
67562
107657
100074
99999
11754
24668
78049
71928
12492
126821
-32219
-30264
67960
67358
44060
-1860
72157
90048
-107572
-73119
-124176
90902
-1787
-1127
39966
5033
13606
58252
86090
-120730
-88778
-55291
-105453
22700
-56473
-59344
-124521
-11038
-19414
-7703
-72260
59214
43664
30042
19148
-83559
116788
-21728
-86891
-116094
-125817
75979
-42527
73787
-55423
-32789
67458
66326
-23570
-64664
-1873
101539
-25353
-12436
4311
-18617
41783
32680
-128265
-58816
-117434
-126950
4669
81430
-110703
25633
63563
128396
55248
127033
17592
-84255
-24619
495
23071
127384
-17483
8801
-70501
-107330
-6255
-127182
-64089
80237
-83795
50649
-77445
99844
-109064
7553
-101929
73104
-101352
-38099
4654
-16438
20689
44143
31073
-66183
-38417
-84851
-109370
66885
43907
-10249
96431
-45820
53690
102997
-109959
70489
113145
41714
51151
46578
89995
7048
49064
120837
16295
56733
102514
87394
-7947
-130505
36824
-66079
80505
108546
131044
5439
112124
41985
-92769
37766
35283
-94081
-76536
8637
75295
-84329
32412
-78044
-102010
85540
84542
31443
102719
-28642
76673
60888
129215
5970
88954
106929
-33630
3001
25590
77635
-121574
37903
-104415
-40387
-99362
-62980
-6501
-4886
4463
93329
12550
47227
-68127
-29349
-11010
-12871
-7943
29618
-118156
-11745
116190
-101711
31635
71034
-94679
-37529
-42486
11242
-18352
116136
-35406
-126895
-92752
94515
6345
52021
-72739
-20152
-119422
-91610
97653
-71502
53509
37731
-8602
-62385
-18437
49708
14222
-120332
-90019
-84138
52719
-32314
3292
35416
24880
-86515
34217
83685
21922
-43671
-91482
49868
23983
58242
-72949
-10139
-106819
50212
-117111
-65185
19827
40135
-42039
19975
48523
65677
26726
46338
123120
6831
-61860
-18585
111209
-79016
-126259
-43693
67489
111337
76377
85745
-112976
-88116
-35108
110069
-34052
-126339
-7556
103279
-96852
-86972
103508
17962
75109
72753
113281
-33428
102813
-4445
-72313
-72660
-39621
-40158
78142
118961
-27466
-29493
96061
76978
76720
-114409
50822
-95795
-29192
86288
23759
24181
128994
35087
89379
-104590
-66999
127680
-98302
10640
110010
120253
63703
-94203
88409
-68982
52488
41734
-46861
-101390
-10164
-109814
102055
-126216
113282
-43971
27651
125200
125706
-63842
-57744
-103182
11626
91747
-13526
-125533
-89217
237
83618
73773
-18159
59909
29520
62376
74973
44468
127975
-24661
15122
-50580
-4844
-69320
-78545
-82004
-93555
104993
-76965
-99046
80814
-6442
-124106
-98813
47994
32395
-116727
15693
-83967
43519
-3982
-53791
48443
-90999
25977
-56461
51058
-50272
77592
104400
229
-7965
-21961
116885
-37113
-28033
-84983
-87736
84757
-119288
69358
42472
49720
-65082
109757
12807
55533
-44939
-124300
73768
-119288
15212
-112296
114093
-108284
-94400
-3676
-20694
-90142
126651
-79233
-30432
-81825
-10115
119668
-57025
-30554
-130369
60266
103421
-1168
-95799
61666
-66886
-83050
-37707
-22569
52777
31497
119981
-24348
-69276
-54960
41625
-41481
24882
40276
48943
127075
99313
-100664
43407
-111502
71120
-3380
-16332
101954
-21118
94264
49247
-37802
54623
24367
129020
-60603
-19191
88106
42473
108312
18259
71299
1196
-88569
71892
4700
-33881
92296
35506
-35323
-101714
129794
-27132
76481
-48106
-95033
-62580
-18148
117041
110721
-46092
112763
64827
43577
95339
-30114
-118094
1678
-1084
72911
-43237
-18542
-17437
28799
49489
-68874
91078
40479
-129498
-62025
-111127
5966
20338
-28361
-84222
-8478
-20037
50624
-110238
29862
-1004
61059
-53098
12438
32412
-36104
-128619
117103
82772
12723
115528
49864
-51861
14525
-44126
32398
-19726
7994
124149
110072
-64233
-50023
-114693
56802
15024
129315
-35325
-9567
-7845
29720
116693
-88259
-124701
113418
-15141
-15324
-33477
-78113
40629
-97967
-40235
-19951
109927
71626
57710
-17270
8139
-47432
-54961
94416
-76661
77754
40681
69300
-43136
77538
-50937
8035
-114
-103952
-25275
-51472
10464
54035
-35046
-121011
-96347
-107731
-96962
123054
36642
3922
55683
-115852
59740
56827
-14546
59216
129805
-82068
129946
113697
28701
130469
-115324
-22520
52353
88027
-45437
30457
130455
48423
-103627
45018
124898
-42276
58787
-15641
-4795
47655
22078
-14947
26521
-22205
-8404
-67556
-60456
44017
-486
20448
92548
44940
92282
-48117
55994
-16785
-102863
-125192
