EDA Netlist Writer report for OFDM_tx
Tue May 20 16:35:17 2014
Quartus II 32-bit Version 12.1 Build 243 01/31/2013 Service Pack 1.dp7 SJ Full Version


---------------------
; Table of Contents ;
---------------------
  1. Legal Notice
  2. EDA Netlist Writer Summary
  3. Simulation Settings
  4. Simulation Generated Files
  5. EDA Netlist Writer Messages



----------------
; Legal Notice ;
----------------
Copyright (C) 1991-2012 Altera Corporation
Your use of Altera Corporation's design tools, logic functions 
and other software and tools, and its AMPP partner logic 
functions, and any output files from any of the foregoing 
(including device programming or simulation files), and any 
associated documentation or information are expressly subject 
to the terms and conditions of the Altera Program License 
Subscription Agreement, Altera MegaCore Function License 
Agreement, or other applicable license agreement, including, 
without limitation, that your use is for the sole purpose of 
programming logic devices manufactured by Altera and sold by 
Altera or its authorized distributors.  Please refer to the 
applicable agreement for further details.



+-------------------------------------------------------------------+
; EDA Netlist Writer Summary                                        ;
+---------------------------+---------------------------------------+
; EDA Netlist Writer Status ; Successful - Tue May 20 16:35:17 2014 ;
; Revision Name             ; OFDM_tx                               ;
; Top-level Entity Name     ; OFDM_tx                               ;
; Family                    ; Stratix IV                            ;
; Simulation Files Creation ; Successful                            ;
+---------------------------+---------------------------------------+


+-------------------------------------------------------------------------------------------------------------------------------+
; Simulation Settings                                                                                                           ;
+---------------------------------------------------------------------------------------------------+---------------------------+
; Option                                                                                            ; Setting                   ;
+---------------------------------------------------------------------------------------------------+---------------------------+
; Tool Name                                                                                         ; ModelSim-Altera (Verilog) ;
; Generate netlist for functional simulation only                                                   ; Off                       ;
; Time scale                                                                                        ; 1 ps                      ;
; Truncate long hierarchy paths                                                                     ; Off                       ;
; Map illegal HDL characters                                                                        ; Off                       ;
; Flatten buses into individual nodes                                                               ; Off                       ;
; Maintain hierarchy                                                                                ; Off                       ;
; Bring out device-wide set/reset signals as ports                                                  ; Off                       ;
; Enable glitch filtering                                                                           ; Off                       ;
; Do not write top level VHDL entity                                                                ; Off                       ;
; Disable detection of setup and hold time violations in the input registers of bi-directional pins ; Off                       ;
; Architecture name in VHDL output netlist                                                          ; structure                 ;
; Generate third-party EDA tool command script for RTL functional simulation                        ; Off                       ;
; Generate third-party EDA tool command script for gate-level simulation                            ; Off                       ;
+---------------------------------------------------------------------------------------------------+---------------------------+


+----------------------------------------------------------------------+
; Simulation Generated Files                                           ;
+----------------------------------------------------------------------+
; Generated Files                                                      ;
+----------------------------------------------------------------------+
; h:/EE898/OFDM_tx/simulation/modelsim/OFDM_tx_2_900mv_85c_slow.vo     ;
; h:/EE898/OFDM_tx/simulation/modelsim/OFDM_tx_2_900mv_0c_slow.vo      ;
; h:/EE898/OFDM_tx/simulation/modelsim/OFDM_tx_min_900mv_0c_fast.vo    ;
; h:/EE898/OFDM_tx/simulation/modelsim/OFDM_tx.vo                      ;
; h:/EE898/OFDM_tx/simulation/modelsim/OFDM_tx_2_900mv_85c_v_slow.sdo  ;
; h:/EE898/OFDM_tx/simulation/modelsim/OFDM_tx_2_900mv_0c_v_slow.sdo   ;
; h:/EE898/OFDM_tx/simulation/modelsim/OFDM_tx_min_900mv_0c_v_fast.sdo ;
; h:/EE898/OFDM_tx/simulation/modelsim/OFDM_tx_v.sdo                   ;
+----------------------------------------------------------------------+


+-----------------------------+
; EDA Netlist Writer Messages ;
+-----------------------------+
Info: *******************************************************************
Info: Running Quartus II 32-bit EDA Netlist Writer
    Info: Version 12.1 Build 243 01/31/2013 Service Pack 1.dp7 SJ Full Version
    Info: Processing started: Tue May 20 16:34:47 2014
Info: Command: quartus_eda --read_settings_files=off --write_settings_files=off OFDM_tx -c OFDM_tx
Info (204019): Generated file OFDM_tx_2_900mv_85c_slow.vo in folder "h:/EE898/OFDM_tx/simulation/modelsim/" for EDA simulation tool
Info (204019): Generated file OFDM_tx_2_900mv_0c_slow.vo in folder "h:/EE898/OFDM_tx/simulation/modelsim/" for EDA simulation tool
Info (204019): Generated file OFDM_tx_min_900mv_0c_fast.vo in folder "h:/EE898/OFDM_tx/simulation/modelsim/" for EDA simulation tool
Info (204019): Generated file OFDM_tx.vo in folder "h:/EE898/OFDM_tx/simulation/modelsim/" for EDA simulation tool
Info (204019): Generated file OFDM_tx_2_900mv_85c_v_slow.sdo in folder "h:/EE898/OFDM_tx/simulation/modelsim/" for EDA simulation tool
Info (204019): Generated file OFDM_tx_2_900mv_0c_v_slow.sdo in folder "h:/EE898/OFDM_tx/simulation/modelsim/" for EDA simulation tool
Info (204019): Generated file OFDM_tx_min_900mv_0c_v_fast.sdo in folder "h:/EE898/OFDM_tx/simulation/modelsim/" for EDA simulation tool
Info (204019): Generated file OFDM_tx_v.sdo in folder "h:/EE898/OFDM_tx/simulation/modelsim/" for EDA simulation tool
Info: Quartus II 32-bit EDA Netlist Writer was successful. 0 errors, 0 warnings
    Info: Peak virtual memory: 418 megabytes
    Info: Processing ended: Tue May 20 16:35:17 2014
    Info: Elapsed time: 00:00:30
    Info: Total CPU time (on all processors): 00:00:15


