25000,65536,65536,0,0
45000,65536,65536,0,0
65000,-65536,65536,0,0
85000,65536,65536,0,0
105000,65536,-65536,0,0
125000,-65536,-65536,0,0
145000,65536,-65536,0,0
165000,-65536,65536,0,0
185000,65536,65536,0,0
205000,65536,65536,0,0
225000,65536,-65536,0,0
245000,65536,65536,0,0
265000,65536,-65536,0,0
285000,65536,-65536,0,0
305000,-65536,65536,0,0
325000,-65536,65536,0,0
345000,-65536,-65536,0,0
365000,-65536,65536,0,0
385000,65536,65536,0,0
405000,65536,-65536,0,0
425000,-65536,-65536,0,0
445000,-65536,-65536,0,0
465000,-65536,-65536,0,0
485000,-65536,-65536,0,0
505000,65536,-65536,0,0
525000,-65536,65536,0,0
545000,65536,-65536,0,0
565000,65536,65536,0,0
585000,65536,65536,0,0
605000,65536,65536,0,0
625000,-65536,-65536,0,0
645000,65536,-65536,0,0
665000,-65536,-65536,0,0
685000,-65536,-65536,0,0
705000,65536,-65536,0,0
725000,65536,65536,0,0
745000,-65536,-65536,0,0
765000,-65536,-65536,0,0
785000,65536,65536,0,0
805000,-65536,-65536,0,0
825000,-65536,65536,0,0
845000,-65536,65536,0,0
865000,65536,-65536,0,0
885000,-65536,-65536,0,0
905000,65536,65536,0,0
925000,-65536,-65536,0,0
945000,65536,65536,0,0
965000,65536,-65536,0,0
985000,-65536,-65536,0,0
1005000,-65536,65536,0,0
1025000,65536,65536,0,0
1045000,-65536,-65536,0,0
1065000,-65536,-65536,0,0
1085000,65536,-65536,0,0
1105000,-65536,-65536,0,0
1125000,65536,-65536,0,0
1145000,-65536,-65536,0,0
1165000,65536,65536,0,0
1185000,-65536,65536,0,0
1205000,-65536,-65536,0,0
1225000,65536,65536,0,0
1245000,-65536,65536,0,0
1265000,65536,65536,0,0
1285000,65536,65536,0,0
1305000,65536,65536,0,0
1325000,65536,-65536,0,0
1345000,65536,-65536,0,0
1365000,65536,-65536,0,0
1385000,-65536,-65536,0,0
1405000,-65536,-65536,0,0
1425000,-65536,65536,0,0
1445000,65536,-65536,0,0
1465000,65536,65536,0,0
1485000,-65536,-65536,0,0
1505000,-65536,-65536,0,0
1525000,65536,65536,0,0
1545000,65536,-65536,0,0
1565000,65536,65536,0,0
1585000,65536,65536,0,0
1605000,-65536,65536,0,0
1625000,-65536,-65536,0,0
1645000,65536,-65536,0,0
1665000,65536,-65536,0,0
1685000,-65536,-65536,0,0
1705000,65536,65536,0,0
1725000,-65536,65536,0,0
1745000,65536,-65536,0,0
1765000,-65536,65536,0,0
1785000,-65536,-65536,0,0
1805000,65536,65536,0,0
1825000,65536,65536,0,0
1845000,65536,65536,0,0
1865000,65536,65536,0,0
1885000,65536,-65536,0,0
1905000,-65536,-65536,0,0
1925000,-65536,-65536,0,0
1945000,-65536,-65536,0,0
1965000,65536,65536,0,0
1985000,-65536,-65536,0,0
2005000,-65536,-65536,0,0
2025000,-65536,-65536,0,0
2045000,-65536,65536,0,0
2065000,65536,-65536,0,0
2085000,-65536,-65536,0,0
2105000,65536,-65536,0,0
2125000,65536,-65536,0,0
2145000,65536,-65536,0,0
2165000,-65536,-65536,0,0
2185000,65536,65536,0,0
2205000,65536,65536,0,0
2225000,-65536,-65536,0,0
2245000,65536,65536,0,0
2265000,-65536,65536,0,0
2285000,-65536,65536,0,0
2305000,-65536,65536,0,0
2325000,-65536,65536,0,0
2345000,-65536,65536,0,0
2365000,-65536,-65536,0,0
2385000,-65536,65536,0,0
2405000,-65536,65536,0,0
2425000,65536,65536,0,0
2445000,-65536,65536,0,0
2465000,-65536,-65536,0,0
2485000,-65536,-65536,0,0
2505000,-65536,-65536,0,0
2525000,-65536,65536,0,0
2545000,65536,-65536,0,0
2565000,-65536,-65536,0,0
2585000,-65536,65536,0,0
2605000,-65536,65536,0,0
2625000,65536,-65536,0,0
2645000,-65536,65536,0,0
2665000,-65536,-65536,0,0
2685000,-65536,-65536,0,0
2705000,65536,65536,0,0
2725000,65536,-65536,0,0
2745000,65536,-65536,0,0
2765000,-65536,65536,0,0
2785000,65536,65536,0,0
2805000,-65536,65536,0,0
2825000,-65536,-65536,0,0
2845000,65536,-65536,0,0
2865000,-65536,65536,0,0
2885000,-65536,65536,0,0
2905000,-65536,65536,0,0
2925000,-65536,65536,0,0
2945000,65536,65536,0,0
2965000,-65536,-65536,0,0
2985000,-65536,-65536,0,0
3005000,65536,65536,0,0
3025000,-65536,65536,0,0
3045000,65536,-65536,0,0
3065000,-65536,65536,0,0
3085000,-65536,-65536,0,0
3105000,65536,-65536,0,0
3125000,65536,-65536,0,0
3145000,-65536,-65536,0,0
3165000,65536,-65536,0,0
3185000,-65536,-65536,0,0
3205000,-65536,-65536,0,0
3225000,65536,65536,0,0
3245000,65536,65536,0,0
3265000,-65536,65536,0,0
3285000,65536,-65536,0,0
3305000,-65536,65536,0,0
3325000,-65536,65536,0,0
3345000,65536,65536,0,0
3365000,-65536,65536,0,0
3385000,65536,-65536,0,0
3405000,-65536,65536,0,0
3425000,65536,-65536,0,0
3445000,-65536,65536,0,0
3465000,65536,65536,0,0
3485000,65536,65536,0,0
3505000,65536,65536,0,0
3525000,65536,-65536,0,0
3545000,-65536,65536,0,0
3565000,65536,-65536,0,0
3585000,-65536,-65536,0,0
3605000,-65536,-65536,0,0
3625000,-65536,65536,0,0
3645000,-65536,-65536,0,0
3665000,-65536,-65536,0,0
3685000,-65536,-65536,0,0
3705000,65536,-65536,0,0
3725000,-65536,65536,0,0
3745000,-65536,65536,0,0
3765000,-65536,-65536,0,0
3785000,65536,-65536,0,0
3805000,-65536,65536,0,0
3825000,65536,-65536,0,0
3845000,65536,65536,0,0
3865000,-65536,65536,0,0
3885000,-65536,-65536,0,0
3905000,-65536,65536,0,0
3925000,-65536,-65536,0,0
3945000,65536,-65536,0,0
3965000,65536,65536,0,0
3985000,-65536,65536,0,0
4005000,-65536,-65536,0,0
4025000,65536,-65536,0,0
4045000,-65536,65536,0,0
4065000,65536,65536,0,0
4085000,-65536,65536,0,0
4105000,65536,65536,0,0
4125000,-65536,65536,0,0
4145000,65536,65536,0,0
4165000,-65536,-65536,0,0
4185000,65536,65536,0,0
4205000,-65536,65536,0,0
4225000,-65536,65536,0,0
4245000,65536,65536,0,0
4265000,-65536,-65536,0,0
4285000,-65536,65536,0,0
4305000,-65536,-65536,0,0
4325000,-65536,65536,0,0
4345000,-65536,65536,0,0
4365000,-65536,-65536,0,0
4385000,-65536,-65536,0,0
4405000,-65536,-65536,0,0
4425000,-65536,65536,0,0
4445000,65536,65536,0,0
4465000,65536,-65536,0,0
4485000,-65536,65536,0,0
4505000,-65536,-65536,0,0
4525000,-65536,65536,0,0
4545000,65536,-65536,0,0
4565000,-65536,-65536,0,0
4585000,-65536,-65536,0,0
4605000,-65536,-65536,0,0
4625000,65536,65536,0,0
4645000,65536,65536,0,0
4665000,65536,-65536,0,0
4685000,-65536,65536,0,0
4705000,65536,65536,0,0
4725000,-65536,-65536,0,0
4745000,-65536,65536,0,0
4765000,-65536,65536,0,0
4785000,-65536,-65536,0,0
4805000,65536,-65536,0,0
4825000,65536,-65536,0,0
4845000,65536,65536,0,0
4865000,65536,-65536,0,0
4885000,-65536,-65536,0,0
4905000,65536,65536,0,0
4925000,65536,-65536,0,0
4945000,65536,65536,0,0
4965000,-65536,-65536,0,0
4985000,-65536,65536,0,0
5005000,-65536,65536,0,0
5025000,65536,65536,0,0
5045000,-65536,65536,0,0
5065000,65536,65536,0,0
5085000,65536,-65536,0,0
5105000,-65536,65536,0,0
5125000,65536,65536,0,0
5145000,-65536,-65536,0,0
5165000,-65536,65536,0,0
5185000,65536,-65536,0,0
5205000,65536,65536,0,0
5225000,65536,-65536,0,0
5245000,65536,65536,0,0
5265000,-65536,-65536,0,0
5285000,-65536,65536,0,0
5305000,65536,65536,0,0
5325000,65536,-65536,0,0
5345000,-65536,65536,0,0
5365000,65536,65536,0,0
5385000,65536,-65536,0,0
5405000,-65536,65536,0,0
5425000,-65536,-65536,0,0
5445000,-65536,65536,0,0
5465000,-65536,65536,0,0
5485000,65536,65536,0,0
5505000,-65536,-65536,0,0
5525000,-65536,65536,0,0
5545000,-65536,-65536,0,0
5565000,-65536,-65536,0,0
5585000,-65536,65536,0,0
5605000,-65536,-65536,0,0
5625000,-65536,-65536,0,0
5645000,-65536,-65536,0,0
5665000,65536,65536,0,0
5685000,-65536,65536,0,0
5705000,-65536,65536,0,0
5725000,-65536,-65536,0,0
5745000,65536,-65536,0,0
5765000,65536,65536,0,0
5785000,-65536,-65536,0,0
5805000,-65536,-65536,0,0
5825000,-65536,-65536,0,0
5845000,65536,-65536,0,0
5865000,65536,65536,0,0
5885000,65536,-65536,0,0
5905000,65536,-65536,0,0
5925000,65536,65536,0,0
5945000,65536,65536,0,0
5965000,-65536,-65536,0,0
5985000,65536,65536,0,0
6005000,-65536,65536,0,0
6025000,-65536,65536,0,0
6045000,-65536,65536,0,0
6065000,65536,65536,0,0
6085000,65536,65536,0,0
6105000,65536,65536,0,0
6125000,-65536,65536,0,0
6145000,-65536,-65536,0,0
6165000,-65536,-65536,0,0
6185000,-65536,65536,0,0
6205000,65536,-65536,0,0
6225000,-65536,65536,0,0
6245000,65536,-65536,0,0
6265000,65536,-65536,0,0
6285000,65536,65536,0,0
6305000,65536,65536,0,0
6325000,-65536,-65536,0,0
6345000,65536,65536,0,0
6365000,-65536,65536,0,0
6385000,65536,65536,0,0
6405000,65536,65536,0,0
6425000,-65536,-65536,0,0
6445000,65536,65536,0,0
6465000,65536,-65536,0,0
6485000,65536,-65536,0,0
6505000,-65536,-65536,0,0
6525000,65536,-65536,0,0
6545000,-65536,-65536,0,0
6565000,-65536,-65536,0,0
6585000,65536,-65536,0,0
6605000,65536,65536,0,0
6625000,-65536,65536,0,0
6645000,65536,-65536,0,0
6665000,-65536,65536,0,0
6685000,65536,65536,0,0
6705000,-65536,65536,0,0
6725000,65536,-65536,0,0
6745000,65536,65536,0,0
6765000,65536,65536,0,0
6785000,-65536,-65536,0,0
6805000,65536,65536,0,0
6825000,65536,65536,0,0
6845000,65536,65536,0,0
6865000,-65536,65536,0,0
6885000,65536,-65536,0,0
6905000,-65536,-65536,0,0
6925000,65536,-65536,0,0
6945000,65536,-65536,0,0
6965000,-65536,-65536,0,0
6985000,-65536,65536,0,0
7005000,65536,-65536,0,0
7025000,-65536,-65536,0,0
7045000,-65536,65536,0,0
7065000,-65536,65536,0,0
7085000,-65536,-65536,0,0
7105000,-65536,65536,0,0
7125000,-65536,65536,0,0
7145000,65536,65536,0,0
7165000,65536,-65536,0,0
7185000,-65536,-65536,0,0
7205000,-65536,65536,0,0
7225000,65536,65536,0,0
7245000,-65536,-65536,0,0
7265000,65536,-65536,0,0
7285000,-65536,65536,0,0
7305000,-65536,-65536,0,0
7325000,65536,65536,0,0
7345000,65536,65536,0,0
7365000,65536,-65536,0,0
7385000,-65536,-65536,0,0
7405000,65536,-65536,0,0
7425000,-65536,65536,0,0
7445000,65536,65536,0,0
7465000,65536,65536,0,0
7485000,-65536,65536,0,0
7505000,65536,-65536,0,0
7525000,-65536,-65536,0,0
7545000,-65536,-65536,0,0
7565000,65536,-65536,0,0
7585000,65536,65536,0,0
7605000,-65536,-65536,0,0
7625000,-65536,-65536,0,0
7645000,65536,-65536,0,0
7665000,65536,65536,0,0
7685000,-65536,-65536,0,0
7705000,65536,65536,0,0
7725000,-65536,-65536,0,0
7745000,-65536,65536,0,0
7765000,65536,65536,0,0
7785000,65536,65536,0,0
7805000,65536,65536,0,0
7825000,-65536,65536,0,0
7845000,65536,65536,0,0
7865000,65536,65536,0,0
7885000,-65536,-65536,0,0
7905000,-65536,-65536,0,0
7925000,65536,65536,0,0
7945000,65536,65536,0,0
7965000,65536,65536,0,0
7985000,65536,65536,0,0
8005000,-65536,-65536,0,0
8025000,65536,65536,0,0
8045000,-65536,65536,0,0
8065000,65536,-65536,0,0
8085000,-65536,65536,0,0
8105000,65536,65536,0,0
8125000,65536,65536,0,0
8145000,65536,65536,0,0
8165000,65536,65536,0,0
8185000,65536,65536,0,0
8205000,-65536,-65536,0,0
8225000,65536,65536,0,0
8245000,-65536,-65536,0,0
8265000,65536,-65536,0,0
8285000,-65536,65536,0,0
8305000,65536,65536,0,0
8325000,65536,65536,0,0
8345000,-65536,65536,0,0
8365000,-65536,65536,0,0
8385000,-65536,-65536,0,0
8405000,-65536,65536,0,0
8425000,-65536,65536,0,0
8445000,65536,-65536,0,0
8465000,-65536,-65536,0,0
8485000,-65536,65536,0,0
8505000,65536,65536,0,0
8525000,-65536,65536,0,0
8545000,-65536,65536,0,0
8565000,-65536,-65536,0,0
8585000,-65536,-65536,0,0
8605000,65536,65536,0,0
8625000,-65536,65536,0,0
8645000,65536,-65536,0,0
8665000,65536,-65536,0,0
8685000,-65536,65536,0,0
8705000,65536,-65536,0,0
8725000,65536,-65536,0,0
8745000,-65536,-65536,0,0
8765000,-65536,-65536,0,0
8785000,-65536,65536,0,0
8805000,65536,-65536,0,0
8825000,65536,-65536,0,0
8845000,-65536,-65536,0,0
8865000,-65536,-65536,0,0
8885000,65536,65536,0,0
8905000,65536,-65536,0,0
8925000,-65536,65536,0,0
8945000,-65536,65536,0,0
8965000,65536,-65536,0,0
8985000,-65536,65536,0,0
9005000,-65536,-65536,0,0
9025000,-65536,-65536,0,0
9045000,65536,-65536,0,0
9065000,65536,65536,0,0
9085000,-65536,65536,0,0
9105000,-65536,-65536,0,0
9125000,-65536,65536,0,0
9145000,-65536,65536,0,0
9165000,65536,65536,0,0
9185000,-65536,65536,0,0
9205000,65536,65536,0,0
9225000,65536,65536,0,0
9245000,-65536,-65536,0,0
9265000,-65536,-65536,0,0
9285000,-65536,65536,0,0
9305000,65536,65536,0,0
9325000,65536,-65536,0,0
9345000,-65536,-65536,0,0
9365000,-65536,65536,0,0
9385000,-65536,65536,0,0
9405000,65536,-65536,0,0
9425000,-65536,-65536,0,0
9445000,65536,-65536,0,0
9465000,-65536,-65536,0,0
9485000,65536,-65536,0,0
9505000,-65536,65536,0,0
9525000,-65536,65536,0,0
9545000,-65536,65536,0,0
9565000,65536,65536,0,0
9585000,65536,-65536,0,0
9605000,-65536,65536,0,0
9625000,65536,65536,0,0
9645000,65536,-65536,0,0
9665000,65536,65536,0,0
9685000,65536,65536,0,0
9705000,-65536,65536,0,0
9725000,-65536,-65536,0,0
9745000,-65536,-65536,0,0
9765000,-65536,65536,0,0
9785000,-65536,-65536,0,0
9805000,65536,-65536,0,0
9825000,65536,-65536,0,0
9845000,65536,65536,0,0
9865000,-65536,-65536,0,0
9885000,65536,-65536,0,0
9905000,-65536,65536,0,0
9925000,-65536,65536,0,0
9945000,65536,65536,0,0
9965000,-65536,65536,0,0
9985000,65536,65536,0,0
10005000,65536,-65536,0,0
10025000,65536,-65536,0,0
10045000,-65536,-65536,0,0
10065000,-65536,-65536,0,0
10085000,-65536,-65536,0,0
10105000,-65536,65536,0,0
10125000,-65536,-65536,0,0
10145000,-65536,65536,0,0
10165000,65536,-65536,0,0
10185000,65536,65536,0,0
10205000,-65536,65536,0,0
10225000,-65536,65536,0,0
10245000,65536,-65536,0,0
10265000,-65536,-65536,0,0
10285000,-65536,65536,0,0
10305000,65536,-65536,0,0
10325000,-65536,65536,0,0
10345000,65536,-65536,0,0
10365000,-65536,65536,0,0
10385000,65536,-65536,0,0
10405000,65536,65536,0,0
10425000,-65536,-65536,0,0
10445000,65536,65536,0,0
10465000,65536,65536,0,0
10485000,65536,-65536,0,0
10505000,-65536,65536,0,0
10525000,-65536,65536,0,0
10545000,-65536,-65536,0,0
10565000,65536,65536,0,0
10585000,65536,65536,0,0
10605000,65536,65536,0,0
10625000,65536,-65536,0,0
10645000,65536,-65536,0,0
10665000,65536,65536,0,0
10685000,-65536,65536,0,0
10705000,65536,-65536,0,0
10725000,65536,65536,0,0
10745000,-65536,65536,0,0
10765000,-65536,65536,0,0
10785000,-65536,65536,0,0
10805000,65536,-65536,0,0
10825000,-65536,65536,0,0
10845000,65536,65536,0,0
10865000,65536,-65536,0,0
10885000,-65536,65536,0,0
10905000,-65536,-65536,0,0
10925000,-65536,65536,0,0
10945000,65536,65536,0,0
10965000,-65536,65536,0,0
10985000,65536,65536,0,0
11005000,-65536,65536,0,0
11025000,-65536,65536,0,0
11045000,65536,65536,0,0
11065000,-65536,65536,0,0
11085000,65536,-65536,0,0
11105000,-65536,65536,0,0
11125000,65536,-65536,0,0
11145000,-65536,-65536,0,0
11165000,-65536,-65536,0,0
11185000,65536,-65536,0,0
11205000,-65536,65536,0,0
11225000,-65536,-65536,0,0
11245000,-65536,-65536,0,0
11265000,65536,-65536,0,0
11285000,65536,65536,0,0
11305000,-65536,-65536,0,0
11325000,65536,-65536,0,0
11345000,65536,65536,0,0
11365000,65536,-65536,0,0
11385000,65536,65536,0,0
11405000,65536,-65536,0,0
11425000,65536,-65536,0,0
11445000,-65536,-65536,0,0
11465000,65536,65536,0,0
11485000,65536,65536,0,0
11505000,-65536,65536,0,0
11525000,65536,-65536,0,0
11545000,65536,65536,0,0
11565000,65536,65536,0,0
11585000,65536,-65536,0,0
11605000,65536,65536,0,0
11625000,-65536,-65536,0,0
11645000,65536,-65536,0,0
11665000,65536,65536,0,0
11685000,-65536,-65536,0,0
11705000,65536,-65536,0,0
11725000,65536,65536,0,0
11745000,-65536,65536,0,0
11765000,-65536,65536,0,0
11785000,-65536,65536,0,0
11805000,65536,-65536,0,0
11825000,-65536,65536,0,0
11845000,65536,-65536,0,0
11865000,-65536,65536,0,0
11885000,-65536,-65536,0,0
11905000,65536,-65536,0,0
11925000,65536,65536,0,0
11945000,65536,-65536,0,0
11965000,-65536,65536,0,0
11985000,-65536,-65536,0,0
12005000,-65536,65536,0,0
12025000,65536,-65536,0,0
12045000,-65536,-65536,0,0
12065000,65536,65536,0,0
12085000,-65536,65536,0,0
12105000,-65536,65536,0,0
12125000,-65536,65536,0,0
12145000,-65536,65536,0,0
12165000,65536,65536,0,0
12185000,65536,65536,0,0
12205000,-65536,65536,0,0
12225000,-65536,-65536,0,0
12245000,-65536,-65536,0,0
12265000,-65536,-65536,0,0
12285000,-65536,65536,0,0
12305000,65536,-65536,0,0
12325000,65536,-65536,0,0
12345000,65536,65536,0,0
12365000,65536,-65536,0,0
12385000,65536,-65536,0,0
12405000,-65536,-65536,0,0
12425000,65536,65536,0,0
12445000,-65536,-65536,0,0
12465000,-65536,65536,0,0
12485000,65536,65536,0,0
12505000,-65536,-65536,0,0
12525000,65536,-65536,0,0
12545000,65536,-65536,0,0
12565000,65536,-65536,0,0
12585000,-65536,65536,0,0
12605000,-65536,-65536,0,0
12625000,65536,-65536,0,0
12645000,65536,65536,0,0
12665000,65536,-65536,0,0
12685000,-65536,65536,0,0
12705000,65536,65536,0,0
12725000,-65536,-65536,0,0
12745000,-65536,-65536,0,0
12765000,65536,-65536,0,0
12785000,-65536,-65536,0,0
12805000,65536,65536,0,0
12825000,-65536,65536,0,0
12845000,-65536,-65536,0,0
12865000,-65536,-65536,0,0
12885000,65536,-65536,0,0
12905000,65536,65536,0,0
12925000,65536,-65536,0,0
12945000,-65536,-65536,0,0
12965000,-65536,65536,0,0
12985000,-65536,65536,0,0
13005000,65536,65536,0,0
13025000,65536,65536,0,0
13045000,-65536,-65536,0,0
13065000,65536,65536,0,0
13085000,65536,-65536,0,0
13105000,65536,-65536,0,0
13125000,65536,-65536,0,0
13145000,-65536,-65536,0,0
13165000,65536,65536,0,0
13185000,-65536,-65536,0,0
13205000,65536,65536,0,0
13225000,-65536,-65536,0,0
13245000,-65536,65536,0,0
13265000,-65536,-65536,0,0
13285000,-65536,-65536,0,0
13305000,-65536,65536,0,0
13325000,65536,-65536,0,0
13345000,65536,65536,0,0
13365000,-65536,-65536,0,0
13385000,65536,-65536,0,0
13405000,65536,-65536,0,0
13425000,-65536,-65536,0,0
13445000,-65536,65536,0,0
13465000,-65536,-65536,0,0
13485000,-65536,65536,0,0
13505000,65536,-65536,0,0
13525000,-65536,-65536,0,0
13545000,65536,-65536,0,0
13565000,65536,65536,0,0
13585000,-65536,65536,0,0
13605000,-65536,-65536,0,0
13625000,65536,-65536,0,0
13645000,-65536,-65536,0,0
13665000,65536,65536,0,0
13685000,-65536,65536,0,0
13705000,65536,65536,0,0
13725000,-65536,65536,0,0
13745000,-65536,65536,0,0
13765000,65536,-65536,0,0
13785000,-65536,-65536,0,0
13805000,-65536,-65536,0,0
13825000,65536,65536,0,0
13845000,-65536,65536,0,0
13865000,65536,-65536,0,0
13885000,-65536,65536,0,0
13905000,-65536,-65536,0,0
13925000,65536,65536,0,0
13945000,-65536,65536,0,0
13965000,-65536,65536,0,0
13985000,-65536,-65536,0,0
14005000,65536,-65536,0,0
14025000,-65536,65536,0,0
14045000,65536,65536,0,0
14065000,-65536,-65536,0,0
14085000,-65536,65536,0,0
14105000,-65536,65536,0,0
14125000,65536,-65536,0,0
14145000,65536,65536,0,0
14165000,-65536,-65536,0,0
14185000,-65536,65536,0,0
14205000,-65536,65536,0,0
14225000,-65536,-65536,0,0
14245000,-65536,65536,0,0
14265000,-65536,-65536,0,0
14285000,65536,65536,0,0
14305000,65536,65536,0,0
14325000,65536,65536,0,0
14345000,-65536,-65536,0,0
14365000,65536,65536,0,0
14385000,-65536,-65536,0,0
14405000,-65536,-65536,0,0
14425000,-65536,-65536,0,0
14445000,-65536,65536,0,0
14465000,-65536,65536,0,0
14485000,65536,-65536,0,0
14505000,-65536,65536,0,0
14525000,65536,-65536,0,0
14545000,65536,65536,0,0
14565000,-65536,65536,0,0
14585000,-65536,65536,0,0
14605000,65536,-65536,0,0
14625000,-65536,-65536,0,0
14645000,65536,65536,0,0
14665000,-65536,-65536,0,0
14685000,65536,-65536,0,0
14705000,65536,-65536,0,0
14725000,-65536,-65536,0,0
14745000,-65536,65536,0,0
14765000,65536,65536,0,0
14785000,65536,-65536,0,0
14805000,65536,-65536,0,0
14825000,-65536,65536,0,0
14845000,-65536,65536,0,0
14865000,-65536,-65536,0,0
14885000,65536,-65536,0,0
14905000,-65536,65536,0,0
14925000,-65536,65536,0,0
14945000,-65536,-65536,0,0
14965000,-65536,65536,0,0
14985000,-65536,65536,0,0
15005000,65536,-65536,0,0
15025000,65536,65536,0,0
15045000,-65536,65536,0,0
15065000,65536,-65536,0,0
15085000,65536,-65536,0,0
15105000,-65536,-65536,0,0
15125000,-65536,-65536,0,0
15145000,-65536,65536,0,0
15165000,65536,-65536,0,0
15185000,65536,65536,0,0
15205000,65536,65536,0,0
15225000,-65536,65536,0,0
15245000,-65536,65536,0,0
15265000,-65536,-65536,0,0
15285000,-65536,-65536,0,0
15305000,-65536,65536,0,0
15325000,-65536,65536,0,0
15345000,-65536,65536,0,0
15365000,65536,65536,0,0
15385000,65536,65536,0,0
15405000,-65536,-65536,0,0
15425000,-65536,-65536,0,0
15445000,-65536,65536,0,0
15465000,65536,65536,0,0
15485000,-65536,-65536,0,0
15505000,65536,-65536,0,0
15525000,65536,-65536,0,0
15545000,-65536,65536,0,0
15565000,65536,65536,0,0
15585000,65536,65536,0,0
15605000,65536,-65536,0,0
15625000,65536,-65536,0,0
15645000,65536,65536,0,0
15665000,65536,65536,0,0
15685000,65536,-65536,0,0
15705000,-65536,-65536,0,0
15725000,-65536,-65536,0,0
15745000,65536,65536,0,0
15765000,65536,65536,0,0
15785000,-65536,-65536,0,0
15805000,-65536,-65536,0,0
15825000,-65536,-65536,0,0
15845000,65536,65536,0,0
15865000,-65536,65536,-7168,-512
15885000,-65536,-65536,7861,3364
15905000,-65536,-65536,1154,2520
15925000,-65536,-65536,7408,-3933
15945000,-65536,65536,117,4517
15965000,65536,65536,-579,1836
15985000,65536,-65536,3571,1195
16005000,65536,65536,-2513,-2399
16025000,65536,-65536,298,1101
16045000,65536,-65536,4065,6844
16065000,65536,-65536,-1032,-3650
16085000,-65536,65536,-99,3032
16105000,65536,65536,7060,1986
16125000,-65536,-65536,-3217,219
16145000,-65536,65536,-4492,5638
16165000,65536,-65536,1757,-5354
16185000,-65536,-65536,268,-8704
16205000,65536,-65536,6635,-5139
16225000,65536,-65536,-4583,6410
16245000,65536,65536,-1830,-7568
16265000,-65536,-65536,3187,-1744
16285000,65536,65536,-687,5472
16305000,65536,65536,-3628,-1994
16325000,-65536,-65536,-6016,-4977
16345000,-65536,65536,-4514,-1896
16365000,65536,65536,1385,-5973
16385000,65536,-65536,-2360,1357
16405000,-65536,-65536,-3823,625
16425000,65536,65536,5089,-4828
16445000,65536,65536,5924,2438
16465000,65536,-65536,7294,835
16485000,-65536,65536,1554,1390
16505000,-65536,65536,2772,1660
16525000,-65536,65536,-262,6001
16545000,-65536,65536,2263,5471
16565000,-65536,65536,-4926,138
16585000,-65536,-65536,-2933,4926
16605000,65536,-65536,7514,5523
16625000,-65536,65536,-1702,5639
16645000,65536,-65536,-784,2216
16665000,65536,-65536,4266,-3136
16685000,-65536,65536,-332,5543
16705000,-65536,-65536,-3120,364
16725000,-65536,65536,4625,-2324
16745000,-65536,-65536,-5897,-4953
16765000,-65536,-65536,3434,-4134
16785000,-65536,65536,-148,1485
16805000,65536,-65536,-4742,3645
16825000,-65536,65536,7867,2382
16845000,-65536,-65536,-4217,3742
16865000,65536,65536,771,-188
16885000,-65536,65536,-6384,-8806
16905000,-65536,65536,-2751,3868
16925000,65536,65536,-10642,4952
16945000,65536,65536,-236,4839
16965000,65536,65536,-3476,1226
16985000,-65536,65536,2917,2252
17005000,65536,65536,-2541,-2343
17025000,65536,65536,1312,-4806
17045000,-65536,65536,-2974,2297
17065000,65536,65536,-3306,6209
17085000,65536,-65536,-6551,-1158
17105000,-65536,65536,3960,-1497
17125000,-65536,65536,-1779,3728
17145000,65536,-65536,9216,512
17165000,-65536,-65536,-2172,2736
17185000,-65536,-65536,-4690,397
17205000,-65536,65536,-4242,-7181
17225000,-65536,65536,-8682,1805
17245000,65536,-65536,-891,-5134
17265000,-65536,65536,-119,-535
17285000,-65536,-65536,-6381,883
17305000,65536,65536,-4834,1682
17325000,-65536,-65536,-2780,913
17345000,65536,-65536,1483,-1752
17365000,65536,65536,-575,8390
17385000,65536,-65536,4315,-3831
17405000,-65536,-65536,4296,62
17425000,65536,-65536,1277,1892
17445000,-65536,65536,5303,1319
17465000,-65536,65536,-1907,3173
17485000,-65536,65536,-2553,8185
17505000,65536,65536,-4602,3466
17525000,-65536,65536,-374,2417
17545000,-65536,-65536,-1632,-2762
17565000,-65536,65536,1324,8520
17585000,-65536,-65536,477,3048
17605000,-65536,-65536,3087,4501
17625000,-65536,65536,-9040,920
17645000,-65536,65536,-395,-1230
17665000,-65536,65536,-2896,-9163
17685000,-65536,65536,2910,4773
17705000,-65536,-65536,1358,1768
17725000,-65536,-65536,-637,2131
17745000,-65536,65536,2253,-1061
17765000,65536,-65536,-1748,-2122
17785000,65536,-65536,6392,-2984
17805000,-65536,65536,7748,-1332
17825000,-65536,-65536,5321,-610
17845000,-65536,-65536,-2514,-3424
17865000,65536,65536,-8276,-6981
17885000,65536,65536,-5696,-2667
17905000,-65536,65536,-4326,-339
17925000,65536,65536,-4045,2899
17945000,-65536,-65536,-2249,-47
17965000,-65536,65536,6244,-7845
17985000,65536,65536,-5631,-1415
18005000,-65536,65536,-2175,336
18025000,-65536,-65536,1998,2661
18045000,-65536,65536,-3425,2701
18065000,65536,65536,7129,-3823
18085000,65536,65536,-2331,-4823
18105000,-65536,-65536,-5661,-2466
18125000,65536,65536,1117,1173
18145000,65536,65536,-2157,-9163
18165000,-65536,-65536,-1955,-7134
18185000,-65536,65536,795,6665
18205000,-65536,-65536,-8005,773
18225000,65536,-65536,-3991,-1391
18245000,-65536,65536,1280,-37
18265000,-65536,-65536,142,-8194
18285000,65536,-65536,-4721,-275
18305000,65536,-65536,-154,-7
18325000,-65536,-65536,-6376,5339
18345000,-65536,-65536,-2793,3633
18365000,65536,65536,-6654,-2608
18385000,-65536,-65536,2938,360
18405000,65536,-65536,114,2204
18425000,-65536,-65536,8192,-1536
18445000,-65536,-65536,1764,-2989
18465000,65536,65536,-4123,-4093
18485000,65536,65536,1307,2356
18505000,65536,65536,5554,1174
18525000,-65536,65536,-1249,1160
18545000,-65536,65536,4863,-4022
18565000,-65536,-65536,-1867,3287
18585000,-65536,-65536,827,3596
18605000,-65536,-65536,-2616,-2221
18625000,65536,65536,1931,-2835
18645000,65536,65536,3212,-3939
18665000,-65536,-65536,-1962,-5608
18685000,65536,65536,2248,10962
18705000,65536,65536,1234,5296
18725000,-65536,65536,-2023,-3151
18745000,65536,-65536,-8409,6108
18765000,-65536,-65536,471,733
18785000,65536,65536,-3936,3142
18805000,65536,-65536,-6109,7308
18825000,65536,65536,-871,3546
18845000,-65536,-65536,1537,-5451
18865000,-65536,-65536,6123,5460
18885000,-65536,-65536,-3925,2885
18905000,-65536,-65536,-5891,-1793
18925000,-65536,-65536,6158,6093
18945000,-65536,65536,-788,1451
18965000,65536,-65536,-1998,5361
18985000,65536,-65536,-987,-1282
19005000,-65536,-65536,-3841,4424
19025000,65536,-65536,-3083,-8879
19045000,65536,65536,-1475,1873
19065000,65536,65536,1324,-2684
19085000,65536,-65536,-2878,-1297
19105000,-65536,-65536,6546,-1617
19125000,-65536,-65536,-5886,2287
19145000,65536,-65536,6533,4320
19165000,65536,-65536,2803,-777
19185000,65536,65536,-9576,-2927
19205000,-65536,65536,739,-1095
19225000,65536,-65536,3191,258
19245000,65536,65536,3665,3491
19265000,65536,-65536,-4002,-2381
19285000,65536,65536,-5724,2632
19305000,65536,-65536,8483,10378
19325000,65536,-65536,-7139,-3651
19345000,-65536,-65536,-1114,-2577
19365000,65536,-65536,913,-932
19385000,-65536,-65536,4867,814
19405000,-65536,-65536,809,1464
19425000,-65536,-65536,-4351,-226
19445000,-65536,65536,-5018,5529
19465000,65536,-65536,-813,-4775
19485000,65536,-65536,-2485,429
19505000,-65536,-65536,-4776,-1024
19525000,-65536,-65536,-2425,3833
19545000,-65536,65536,3946,-3032
19565000,-65536,-65536,6672,-2447
19585000,65536,-65536,9959,-422
19605000,-65536,65536,-6686,3058
19625000,65536,65536,1340,-275
19645000,65536,-65536,-2237,5253
19665000,-65536,-65536,3019,242
19685000,65536,-65536,763,-3768
19705000,65536,65536,-2048,1536
19725000,-65536,65536,2397,2281
19745000,65536,-65536,5229,1412
19765000,-65536,65536,195,-302
19785000,65536,-65536,-2257,5394
19805000,-65536,-65536,2422,3130
19825000,-65536,65536,1979,1927
19845000,65536,-65536,3345,-2700
19865000,-65536,65536,-636,15
19885000,-65536,-65536,7017,1015
19905000,-65536,-65536,72,-1154
19925000,-65536,-65536,-4055,-3360
19945000,-65536,65536,2996,-7121
19965000,65536,65536,-2309,-1095
19985000,65536,65536,-616,1262
20005000,-65536,65536,3058,-1828
20025000,-65536,-65536,3904,1471
20045000,-65536,65536,-708,7323
20065000,65536,-65536,656,4920
20085000,65536,-65536,2809,-1184
20105000,65536,-65536,4732,-4196
20125000,65536,65536,-7086,7479
20145000,65536,-65536,7109,3075
20165000,-65536,65536,5118,-1443
20185000,-65536,-65536,-581,-231
20205000,65536,65536,-5347,-2503
20225000,65536,65536,3524,2305
20245000,-65536,-65536,-1707,1576
20265000,65536,65536,-9528,-2031
20285000,-65536,65536,4699,-5445
20305000,-65536,65536,-889,2941
20325000,65536,-65536,1097,-4391
20345000,-65536,-65536,-2296,-88
20365000,65536,65536,3474,2405
20385000,65536,-65536,-661,2313
20405000,65536,-65536,4865,-229
20425000,65536,65536,56,4623
20445000,65536,65536,423,-873
20465000,-65536,-65536,-3954,-4074
20485000,-65536,65536,-4212,-9978
20505000,-65536,65536,-864,628
20525000,-65536,-65536,-612,960
20545000,65536,-65536,-65,7029
20565000,65536,-65536,4940,5897
20585000,-65536,65536,-1312,695
20605000,-65536,-65536,1992,4794
20625000,65536,65536,3482,-1604
20645000,65536,65536,66,-1764
20665000,65536,65536,66,-1764
20685000,-65536,-65536,66,-1764
20705000,-65536,-65536,66,-1764
20725000,65536,65536,66,-1764
20745000,-65536,-65536,66,-1764
20765000,-65536,65536,66,-1764
20785000,65536,-65536,66,-1764
20805000,65536,-65536,66,-1764
20825000,-65536,65536,66,-1764
20845000,-65536,-65536,66,-1764
20865000,-65536,65536,66,-1764
20885000,65536,65536,66,-1764
20905000,65536,65536,66,-1764
20925000,-65536,65536,66,-1764
20945000,65536,65536,66,-1764
20965000,65536,-65536,66,-1764
20985000,65536,65536,66,-1764
21005000,-65536,-65536,66,-1764
21025000,-65536,-65536,66,-1764
21045000,65536,-65536,66,-1764
21065000,65536,65536,66,-1764
21085000,-65536,65536,66,-1764
21105000,65536,65536,66,-1764
21125000,-65536,-65536,66,-1764
21145000,-65536,65536,66,-1764
21165000,65536,65536,66,-1764
21185000,-65536,65536,66,-1764
21205000,-65536,65536,66,-1764
21225000,65536,-65536,66,-1764
21245000,65536,-65536,66,-1764
21265000,-65536,65536,66,-1764
21285000,65536,-65536,66,-1764
21305000,65536,-65536,66,-1764
21325000,65536,65536,66,-1764
21345000,65536,65536,66,-1764
21365000,-65536,65536,66,-1764
21385000,65536,65536,66,-1764
21405000,-65536,65536,66,-1764
21425000,65536,65536,66,-1764
21445000,65536,65536,66,-1764
21465000,65536,-65536,66,-1764
21485000,-65536,65536,66,-1764
21505000,-65536,65536,66,-1764
21525000,65536,65536,66,-1764
21545000,65536,-65536,66,-1764
21565000,-65536,-65536,66,-1764
21585000,65536,-65536,66,-1764
21605000,-65536,-65536,66,-1764
21625000,65536,-65536,66,-1764
21645000,-65536,65536,66,-1764
21665000,-65536,65536,66,-1764
21685000,65536,65536,66,-1764
21705000,-65536,65536,66,-1764
21725000,-65536,65536,66,-1764
21745000,-65536,65536,66,-1764
21765000,65536,-65536,66,-1764
21785000,-65536,65536,66,-1764
21805000,65536,65536,66,-1764
21825000,-65536,65536,66,-1764
21845000,-65536,-65536,66,-1764
21865000,65536,-65536,66,-1764
21885000,65536,65536,66,-1764
21905000,-65536,-65536,66,-1764
21925000,65536,65536,66,-1764
21945000,65536,65536,66,-1764
21965000,-65536,-65536,66,-1764
21985000,-65536,-65536,66,-1764
22005000,65536,-65536,66,-1764
22025000,-65536,65536,66,-1764
22045000,-65536,65536,66,-1764
22065000,-65536,65536,66,-1764
22085000,65536,65536,66,-1764
22105000,-65536,65536,66,-1764
22125000,65536,-65536,66,-1764
22145000,65536,65536,66,-1764
22165000,65536,65536,66,-1764
22185000,-65536,-65536,66,-1764
22205000,-65536,-65536,66,-1764
22225000,65536,-65536,66,-1764
22245000,-65536,65536,66,-1764
22265000,65536,65536,66,-1764
22285000,-65536,65536,66,-1764
22305000,65536,-65536,66,-1764
22325000,65536,-65536,66,-1764
22345000,65536,65536,66,-1764
22365000,-65536,65536,66,-1764
22385000,-65536,-65536,66,-1764
22405000,65536,-65536,66,-1764
22425000,65536,65536,66,-1764
22445000,-65536,65536,66,-1764
22465000,-65536,-65536,66,-1764
22485000,-65536,65536,66,-1764
22505000,65536,65536,66,-1764
22525000,-65536,-65536,66,-1764
22545000,-65536,65536,66,-1764
22565000,65536,-65536,66,-1764
22585000,-65536,-65536,66,-1764
22605000,-65536,65536,66,-1764
22625000,-65536,65536,66,-1764
22645000,65536,65536,66,-1764
22665000,-65536,65536,66,-1764
22685000,-65536,-65536,66,-1764
22705000,-65536,-65536,66,-1764
22725000,65536,65536,66,-1764
22745000,-65536,-65536,66,-1764
22765000,-65536,-65536,66,-1764
22785000,65536,-65536,66,-1764
22805000,65536,-65536,66,-1764
22825000,65536,65536,66,-1764
22845000,65536,-65536,66,-1764
22865000,-65536,-65536,66,-1764
22885000,-65536,65536,66,-1764
22905000,-65536,65536,66,-1764
22925000,65536,65536,66,-1764
22945000,-65536,65536,66,-1764
22965000,65536,-65536,66,-1764
22985000,-65536,-65536,66,-1764
23005000,65536,-65536,66,-1764
23025000,65536,65536,66,-1764
23045000,-65536,65536,66,-1764
23065000,-65536,-65536,66,-1764
23085000,-65536,65536,66,-1764
23105000,-65536,65536,66,-1764
23125000,-65536,65536,66,-1764
23145000,65536,65536,66,-1764
23165000,-65536,-65536,66,-1764
23185000,65536,65536,66,-1764
23205000,-65536,65536,66,-1764
23225000,65536,65536,66,-1764
23245000,-65536,65536,66,-1764
23265000,-65536,65536,66,-1764
23285000,65536,65536,66,-1764
23305000,65536,-65536,66,-1764
23325000,65536,-65536,66,-1764
23345000,-65536,-65536,66,-1764
23365000,-65536,65536,66,-1764
23385000,-65536,65536,66,-1764
23405000,-65536,-65536,66,-1764
23425000,65536,65536,66,-1764
23445000,-65536,-65536,66,-1764
23465000,65536,-65536,66,-1764
23485000,-65536,65536,66,-1764
23505000,-65536,65536,66,-1764
23525000,65536,65536,66,-1764
23545000,65536,-65536,66,-1764
23565000,-65536,-65536,66,-1764
23585000,65536,-65536,66,-1764
23605000,65536,65536,66,-1764
23625000,65536,65536,66,-1764
23645000,65536,65536,66,-1764
23665000,65536,65536,66,-1764
23685000,-65536,-65536,66,-1764
23705000,65536,65536,66,-1764
23725000,-65536,65536,66,-1764
23745000,-65536,-65536,66,-1764
23765000,65536,65536,66,-1764
23785000,-65536,-65536,66,-1764
23805000,65536,65536,66,-1764
23825000,65536,-65536,66,-1764
23845000,-65536,-65536,66,-1764
23865000,65536,65536,66,-1764
23885000,65536,-65536,66,-1764
23905000,65536,-65536,66,-1764
23925000,65536,-65536,66,-1764
23945000,-65536,65536,66,-1764
23965000,-65536,-65536,66,-1764
23985000,-65536,-65536,66,-1764
24005000,65536,-65536,66,-1764
24025000,65536,65536,66,-1764
24045000,65536,-65536,66,-1764
24065000,65536,-65536,66,-1764
24085000,65536,-65536,66,-1764
24105000,-65536,65536,66,-1764
24125000,65536,-65536,66,-1764
24145000,-65536,-65536,66,-1764
24165000,-65536,65536,66,-1764
24185000,65536,-65536,66,-1764
24205000,-65536,-65536,66,-1764
24225000,-65536,-65536,66,-1764
24245000,-65536,-65536,66,-1764
24265000,-65536,-65536,66,-1764
24285000,-65536,65536,66,-1764
24305000,-65536,65536,66,-1764
24325000,-65536,65536,66,-1764
24345000,65536,-65536,66,-1764
24365000,-65536,65536,66,-1764
24385000,65536,65536,66,-1764
24405000,-65536,-65536,66,-1764
24425000,-65536,-65536,66,-1764
24445000,65536,-65536,66,-1764
24465000,65536,65536,66,-1764
24485000,-65536,-65536,66,-1764
24505000,-65536,65536,66,-1764
24525000,-65536,65536,66,-1764
24545000,65536,65536,66,-1764
24565000,-65536,65536,66,-1764
24585000,-65536,-65536,66,-1764
24605000,65536,65536,66,-1764
24625000,65536,65536,66,-1764
24645000,-65536,65536,66,-1764
24665000,65536,65536,66,-1764
24685000,65536,65536,66,-1764
24705000,65536,-65536,66,-1764
24725000,65536,-65536,66,-1764
24745000,65536,65536,66,-1764
24765000,65536,-65536,66,-1764
24785000,-65536,-65536,66,-1764
24805000,65536,-65536,66,-1764
24825000,65536,65536,66,-1764
24845000,65536,65536,66,-1764
24865000,-65536,-65536,66,-1764
24885000,-65536,65536,66,-1764
24905000,65536,65536,66,-1764
24925000,65536,65536,66,-1764
24945000,-65536,-65536,66,-1764
24965000,-65536,65536,66,-1764
24985000,-65536,65536,66,-1764
